Приведем пример последовательного исполнения потоков, при котором 
не будет взаимного исключения. Пронумеруем позиции, в которых будут
оказываться потоки в промежуточные моменты времени.

Поток 0                             Поток 1
1.                                  4.
victim = 0                          victim = 1
2.                                  5.
want[0] = true                      want[1] = true
3.                                  6.
while (want[1] and victim == 0)     while (want[0] and victim == 1) 
    // wait                             // wait
    
Заметим, что при последовательности переходов между позициями 1 -> 2 -> 4 ->
-> 5 -> 6 -> 3 у нас в victim будет лежать 1, want[0] = false, 
want[1] = true (рассматриваем момент после перехода в позицию 6), и при 
этом для потока 1 условие while не будет выполняться => поток 1 зайдет в 
критическую секцию. После этого want[0] станет true, мы перейдем в позицию 3,
условие while не будет выполняться => поток 0 зайдет в критическую секцию.
Значит, при такой последовательности исполнения потоков оба потока окажутся
в критической секции одновременно.
